<svg width="194" height="24" viewBox="0 0 194 24" fill="none" xmlns="http://www.w3.org/2000/svg">
<path d="M0 0.195312H8.93181C10.3091 0.195312 11.8354 0.256981 13.151 0.632138C15.6795 1.38245 16.9283 3.28907 16.9283 5.91003C16.9283 8.62863 15.2118 10.7203 12.4932 11.4397C15.366 11.8766 17.4576 13.814 17.4576 16.8153C17.4576 18.8452 16.6457 20.7827 15.0217 22.0007C13.5211 23.1261 11.4911 23.6246 8.46415 23.6246H0V0.195312ZM7.90399 10.3502C8.83931 10.3502 9.93394 10.3194 10.6226 10.1293C12.781 9.56909 13.778 8.25347 13.778 6.28518C13.778 4.56871 12.8427 3.22226 10.8744 2.87794C10.0316 2.72377 8.43846 2.72377 7.71898 2.72377H3.16057V10.3451H7.90399V10.3502ZM7.78065 21.0653C9.1271 21.0653 10.2474 21.0037 11.2187 20.721C13.1562 20.1608 14.2148 18.8144 14.2148 16.6611C14.2148 15.253 13.5262 13.9733 12.0307 13.3823C11.0286 12.9455 9.53309 12.853 8.09414 12.853H3.16057V21.0705H7.78065V21.0653Z" fill="black"/>
<path d="M23.265 6.63506H26.1994V9.53867C26.6979 8.4132 27.5459 7.57038 28.3887 7.10272C29.1698 6.63506 30.0126 6.51172 31.5441 6.51172H32.4178L32.4486 9.38449H30.8555C29.6683 9.38449 28.9797 9.35366 28.1985 9.79049C27.2632 10.289 26.3228 11.5378 26.3228 14.5082V23.6302H23.2598V6.63506H23.265Z" fill="black"/>
<path d="M42.3775 24.0001C36.9762 24.0001 34.0983 20.1252 34.0983 15.0631C34.0983 9.84689 37.3463 6.25464 42.5316 6.25464C47.9997 6.25464 50.8108 10.2529 50.559 15.6593H37.1253C37.2795 19.4057 39.3762 21.5949 42.4957 21.5949C44.6849 21.5949 46.5556 20.5003 47.1826 18.2185H50.0862C49.377 21.8468 46.3757 24.0001 42.3775 24.0001ZM47.3162 13.3518C47.0695 10.3865 45.1937 8.66489 42.3518 8.66489C39.7617 8.66489 37.8242 10.073 37.2589 13.3518H47.3162Z" fill="black"/>
<path d="M61.4897 24.0001C56.0885 24.0001 53.2106 20.1252 53.2106 15.0631C53.2106 9.84689 56.4585 6.25464 61.6439 6.25464C67.1119 6.25464 69.923 10.2529 69.6712 15.6593H56.2375C56.3917 19.4057 58.4885 21.5949 61.6079 21.5949C63.7972 21.5949 65.6678 20.5003 66.2948 18.2185H69.1984C68.4892 21.8468 65.488 24.0001 61.4897 24.0001ZM66.4284 13.3518C66.1817 10.3865 64.306 8.66489 61.464 8.66489C58.8739 8.66489 56.9364 10.073 56.3711 13.3518H66.4284Z" fill="black"/>
<path d="M85.7567 6.63477L85.7875 8.85487L75.5092 21.1631H85.9108V23.6607H71.9478V21.4406L82.3186 9.13238H72.102V6.63477H85.7567Z" fill="black"/>
<path d="M96.467 24.0001C91.0606 24.0001 88.1879 20.1252 88.1879 15.0631C88.1879 9.84689 91.4358 6.25464 96.6212 6.25464C102.089 6.25464 104.9 10.2529 104.649 15.6593H91.2148C91.3741 19.4057 93.4658 21.5949 96.5904 21.5949C98.7745 21.5949 100.65 20.5003 101.277 18.2185H104.181C103.467 21.8468 100.465 24.0001 96.467 24.0001ZM101.401 13.3518C101.149 10.3865 99.2781 8.66489 96.431 8.66489C93.8409 8.66489 91.9035 10.073 91.3382 13.3518H101.401Z" fill="black"/>
<path d="M119.14 23.6246H115.672L107.146 0.195312H110.517L115.826 15.2221C116.36 16.6611 116.951 18.0949 117.511 19.8474C118.077 18.1001 118.606 16.6611 119.135 15.2221L124.572 0.195312H127.79L119.14 23.6246Z" fill="black"/>
<path d="M137.004 24.0001C131.603 24.0001 128.725 20.1252 128.725 15.0631C128.725 9.84689 131.973 6.25464 137.158 6.25464C142.626 6.25464 145.438 10.2529 145.186 15.6593H131.752C131.906 19.4057 134.003 21.5949 137.122 21.5949C139.312 21.5949 141.182 20.5003 141.809 18.2185H144.713C143.999 21.8468 141.002 24.0001 137.004 24.0001ZM141.938 13.3518C141.691 10.3865 139.815 8.66489 136.973 8.66489C134.383 8.66489 132.446 10.073 131.881 13.3518H141.938Z" fill="black"/>
<path d="M149.271 6.63506H152.206V9.53867C152.704 8.4132 153.552 7.57038 154.395 7.10272C155.176 6.63506 156.019 6.51172 157.55 6.51172H158.424L158.455 9.38449H156.862C155.675 9.38449 154.986 9.35366 154.205 9.79049C153.269 10.289 152.329 11.5378 152.329 14.5082V23.6302H149.266V6.63506H149.271Z" fill="black"/>
<path d="M167.294 6.229C171.262 6.229 173.98 8.35146 174.134 11.8512H171.2C171.077 10.0371 169.699 8.57245 167.294 8.57245C165.043 8.57245 163.481 9.5386 163.481 11.291C163.481 12.73 164.576 13.2285 166.513 13.4803L169.324 13.8555C172.603 14.2615 174.386 15.6336 174.386 18.3214C174.386 21.7595 171.447 23.9744 167.418 23.9744C163.512 23.9744 160.454 22.0986 160.295 18.1929H163.198C163.322 20.6289 165.449 21.631 167.572 21.631C169.823 21.631 171.416 20.4747 171.416 18.5989C171.416 16.8824 170.013 16.6614 168.322 16.4456L166.636 16.2246C164.514 15.942 163.137 15.6336 162.109 14.8833C161.138 14.1638 160.547 13.0692 160.547 11.6045C160.547 8.4748 163.204 6.229 167.294 6.229Z" fill="black"/>
<path d="M185.405 24.0001C179.998 24.0001 177.126 20.1252 177.126 15.0631C177.126 9.84689 180.374 6.25464 185.559 6.25464C191.027 6.25464 193.838 10.2529 193.586 15.6593H180.153C180.312 19.4057 182.404 21.5949 185.528 21.5949C187.712 21.5949 189.588 20.5003 190.215 18.2185H193.119C192.404 21.8468 189.403 24.0001 185.405 24.0001ZM190.343 13.3518C190.092 10.3865 188.221 8.66489 185.374 8.66489C182.784 8.66489 180.846 10.073 180.281 13.3518H190.343Z" fill="black"/>
</svg>
